{
    "name": "ChiTietGiamDinh",
    "fields": [
        {
            "fieldName": "soLuong",
            "fieldType": "Integer"
        },
        {
            "fieldName": "datYeuCau",
            "fieldType": "Integer"
        },
        {
            "fieldName": "ngayTao",
            "fieldType": "LocalDate"
        },
        {
            "fieldName": "nguoiTao",
            "fieldType": "String"
        },
        {
            "fieldName": "ngayCapNhat",
            "fieldType": "LocalDate"
        },
        {
            "fieldName": "nguoiCapNhat",
            "fieldType": "String"
        }
    ],
    "relationships": [
        {
            "relationshipType": "many-to-one",
            "relationshipName": "chiTietPhieuGiamDinh",
            "otherEntityName": "chiTietPhieuGiamDinh",
            "otherEntityField": "id"
        }
    ],
    "changelogDate": "20181210160513",
    "entityTableName": "chi_tiet_giam_dinh",
    "dto": "no",
    "pagination": "no",
    "service": "no",
    "jpaMetamodelFiltering": false,
    "fluentMethods": true,
    "clientRootFolder": "",
    "applications": "*"
}