{
    "name": "ChiTietBangDinhMuc",
    "fields": [
        {
            "fieldName": "chiTietPhieuMuaHangId",
            "fieldType": "Long"
        },
        {
            "fieldName": "dinhMuc",
            "fieldType": "Integer"
        },
        {
            "fieldName": "viTriKhoId",
            "fieldType": "Long"
        },
        {
            "fieldName": "khoId",
            "fieldType": "Long"
        },
        {
            "fieldName": "ngayTao",
            "fieldType": "LocalDate"
        },
        {
            "fieldName": "nguoiTao",
            "fieldType": "String"
        },
        {
            "fieldName": "ngayCapNhat",
            "fieldType": "LocalDate"
        },
        {
            "fieldName": "nguoiCapNhat",
            "fieldType": "String"
        }
    ],
    "relationships": [
        {
            "relationshipType": "many-to-one",
            "relationshipName": "bangDinhMuc",
            "otherEntityName": "bangDinhMuc",
            "otherEntityField": "id"
        }
    ],
    "changelogDate": "20181210160510",
    "entityTableName": "chi_tiet_bang_dinh_muc",
    "dto": "no",
    "pagination": "no",
    "service": "no",
    "jpaMetamodelFiltering": false,
    "fluentMethods": true,
    "clientRootFolder": "",
    "applications": "*"
}