{
    "name": "NhomThuocTinh",
    "fields": [
        {
            "fieldName": "ten",
            "fieldType": "String"
        },
        {
            "fieldName": "ma",
            "fieldType": "String"
        },
        {
            "fieldName": "moTa",
            "fieldType": "String"
        },
        {
            "fieldName": "ngayTao",
            "fieldType": "LocalDate"
        },
        {
            "fieldName": "nguoiTao",
            "fieldType": "String"
        },
        {
            "fieldName": "ngayCapNhat",
            "fieldType": "LocalDate"
        },
        {
            "fieldName": "nguoiCapNhat",
            "fieldType": "String"
        }
    ],
    "relationships": [],
    "changelogDate": "20181204130134",
    "entityTableName": "nhom_thuoc_tinh",
    "dto": "mapstruct",
    "pagination": "pagination",
    "service": "serviceImpl",
    "jpaMetamodelFiltering": false,
    "fluentMethods": true,
    "clientRootFolder": "",
    "applications": "*"
}