{
    "name": "ChiTietPhieuMuaHang",
    "fields": [
        {
            "fieldName": "sanPhamId",
            "fieldType": "Long"
        },
        {
            "fieldName": "chiTietSanPhamId",
            "fieldType": "Long"
        },
        {
            "fieldName": "giaMua",
            "fieldType": "Double"
        },
        {
            "fieldName": "soLuong",
            "fieldType": "Integer"
        },
        {
            "fieldName": "ngayTao",
            "fieldType": "LocalDate"
        },
        {
            "fieldName": "nguoiTao",
            "fieldType": "String"
        },
        {
            "fieldName": "ngayCapNhat",
            "fieldType": "LocalDate"
        },
        {
            "fieldName": "nguoiCapNhat",
            "fieldType": "String"
        }
    ],
    "relationships": [
        {
            "relationshipType": "many-to-one",
            "relationshipName": "phieuMuaHang",
            "otherEntityName": "phieuMuaHang",
            "otherEntityField": "id"
        }
    ],
    "changelogDate": "20181210152045",
    "entityTableName": "chi_tiet_phieu_mua_hang",
    "dto": "no",
    "pagination": "no",
    "service": "no",
    "jpaMetamodelFiltering": false,
    "fluentMethods": true,
    "clientRootFolder": "",
    "applications": "*",
    "microserviceName": "storehouse"
}