{
    "name": "ViTriKho",
    "fields": [
        {
            "fieldName": "ten",
            "fieldType": "String"
        },
        {
            "fieldName": "ma",
            "fieldType": "String"
        },
        {
            "fieldName": "moTa",
            "fieldType": "String"
        },
        {
            "fieldName": "ngayTao",
            "fieldType": "LocalDate"
        },
        {
            "fieldName": "nguoiTao",
            "fieldType": "String"
        },
        {
            "fieldName": "ngayCapNhat",
            "fieldType": "LocalDate"
        },
        {
            "fieldName": "nguoiCapNhat",
            "fieldType": "String"
        }
    ],
    "relationships": [
        {
            "relationshipType": "many-to-one",
            "relationshipName": "kho",
            "otherEntityName": "kho",
            "otherEntityField": "id"
        }
    ],
    "changelogDate": "20181205145050",
    "entityTableName": "vi_tri_kho",
    "dto": "mapstruct",
    "pagination": "pagination",
    "service": "serviceImpl",
    "jpaMetamodelFiltering": false,
    "fluentMethods": true,
    "clientRootFolder": "",
    "applications": "*",
    "microserviceName": "library"
}